{
  "totalItems": 100,
  "currentPage": 1,
  "pageSize": 2,
  "totalPages": 50,
  "data": [
    {
      "postId": "1",
      "title": "Vaga de estágio da empresa tal",
      "description": "Vaga de Estágio: Aberta oportunidade para alunos de Engenharia de Software no CIEVS-MS. Carga horária de 20h/semana, bolsa auxílio, oportunidade de aprendizado em análise de dados e desenvolvimento web. Inscrições até 20/09. Envie seu currículo para email@example.com. Não perca!",
      "link": "https://teste.com",
      "postDate": "2024-09-16T15:30:00Z",
      "expireDate": "2024-10-16T01:30:00Z",
      "tags": ["ESTAGIO", "BOLSAS"],
      "imagePath": "https://imagepath.com/imageName",
      "publisherId": "123",
      "publisherName": "Fulano de Tal",
      "creationDate": "2024-10-16T01:30:00Z",
      "editionDate": "2024-10-16T01:30:00Z"
    },
    {
      "postId": "2",
      "title": "Vaga de Bolsa",
      "description": "Vaga de Bolsa: Aberta oportunidade para alunos de Engenharia de Software no CIEVS-MS. Carga horária de 20h/semana, bolsa auxílio, oportunidade de aprendizado em análise de dados e desenvolvimento web. Inscrições até 20/09. Envie seu currículo para email@example.com. Não perca!",
      "link": "https://teste123.com",
      "postDate": "2024-09-16T15:30:00Z",
      "expireDate": "2024-10-16T01:30:00Z",
      "tags": ["BOLSAS"],
      "imagePath": "https://imagepath.com/imageName",
      "publisherId": "432",
      "publisherName": "Fulana de Tal",
      "creationDate": "2024-10-16T01:30:00Z",
      "editionDate": "2024-10-16T01:30:00Z"
    }
  ]
}
